-------------------------------------------------------------------------------
Test set: com.example.clientes.ClientesApplicationTests
-------------------------------------------------------------------------------
Tests run: 1, Failures: 0, Errors: 0, Skipped: 0, Time elapsed: 2.805 s - in com.example.clientes.ClientesApplicationTests
